Yes_No_Formatter,YOUR_EEID,YOUR_CODE,POS_CODE,YOUR_TITLE,RandomQuesCode1,autodata_8032_001
Yes_No_Formatter,Employee identifier,Internal job code ,Mercer benchmark code,Job title within your organization,RandomQuesLabel1,autodata_8032_001
YES (Y),1,,FIN.100.20.E20,,,
Non,2,,FIN.100.20.E20,,,
