{  
   "entities":[  
      {  
         "sectionStructure":{  
    "columns": [
        {
            "code": "A",                       
            "displayLabel": "Employee Identifier",  
            "dataType": "string",                   
            "validations": [
             {
			  "errorType": "AUTOCORRECT",
			  "validationType": "expression",
			  "expression": " XMIN(\"A\",\"A > 1\", \"B=ASSFASF\");",
			  "errorGroup": "Demographics",
			  "message": "geo_scope_of_role must be from the given values."
			}
            ]
        },
		{
            "code": "B",
            "displayLabel": "Organization Job Title",
            "dataType": "string",
            "validations": []
        },{
            "code": "C",
            "displayLabel": "Organization Job Title",
            "dataType": "string",
            "validations": []
        }
		]
}
}]}