timeStamp,elapsed,label,responseCode,threadName,success,bytes,grpThreads,allThreads,Latency,SampleCount,ErrorCount,Hostname,Connect
1515048555113,3579,FileUpload D15_PE-8110_ErrorCell,200,Thread Group_Prod1 1-1,true,1547,1,1,3579,1,0,INFPU07042,332
1515048558803,14075,FileUpload D15_PE-8110_ErrorCell_Ignore,422,Thread Group_Prod1 1-1,false,651327,1,1,5671,1,1,INFPU07042,250
1515048573026,11738,FileUpload D15_PE-8110_ErrorCell_Ignore,400,Thread Group_Prod1 1-1,false,380,1,1,11737,1,1,INFPU07042,248
1515048584812,1282,FileUpload D15_PE-5678_SequentialWithOtherValidations,200,Thread Group_Prod1 1-1,true,5447,1,1,1280,1,0,INFPU07042,268
1515048586157,580,NoFileUpload D15_PE-5678_SequentialWithOtherValidations,200,Thread Group_Prod1 1-1,true,982,1,1,580,1,0,INFPU07042,0
1515048586814,537,NoFileUpload D15_PE-5678_SequentialWithOtherValidations,200,Thread Group_Prod1 1-1,true,951,1,1,537,1,0,INFPU07042,0
1515048587446,1960,NoFileUpload D15_PE-7172MDA,200,Thread Group_Prod1 1-1,false,656,1,1,1960,1,1,INFPU07042,394
1515048589533,1333,FileUpload D20_PE7172,200,Thread Group_Prod1 1-1,true,4777,1,1,1330,1,0,INFPU07042,252
1515048591014,2154,FileUpload D15_PE-7257_US_CSV,200,Thread Group_Prod1 1-1,true,11256,1,1,2149,1,0,INFPU07042,0
1515048593432,5791,FileUpload D15_PE-7257_US_Excel,200,Thread Group_Prod1 1-1,false,50324,1,1,4355,1,1,INFPU07042,254
1515048599422,3497,NoFileUpload PE5668 T1_Chk response with Vivek for [null],200,Thread Group_Prod1 1-1,true,740,1,1,3497,1,0,INFPU07042,246
1515048602959,2468,NoFileUpload PE5668 T2,200,Thread Group_Prod1 1-1,true,644,1,1,2468,1,0,INFPU07042,255
1515048605476,8290,NoFileUpload PE5668 T3,200,Thread Group_Prod1 1-1,true,790,1,1,8290,1,0,INFPU07042,253
1515048613811,5167,NoFileUpload PE5668 T4,200,Thread Group_Prod1 1-1,true,741,1,1,5167,1,0,INFPU07042,253
1515048619025,10335,NoFileUpload PE5668 T5,Non HTTP response code: java.net.SocketTimeoutException,Thread Group_Prod1 1-1,true,2683,1,1,0,1,0,INFPU07042,334
1515048629416,10248,NoFileUpload PE5668 T6,Non HTTP response code: java.net.SocketTimeoutException,Thread Group_Prod1 1-1,true,2683,1,1,0,1,0,INFPU07042,249
1515048639701,10249,NoFileUpload PE5668 T7,Non HTTP response code: java.net.SocketTimeoutException,Thread Group_Prod1 1-1,true,2683,1,1,0,1,0,INFPU07042,247
1515048649960,10342,NoFileUpload PE5668 T8,Non HTTP response code: java.net.SocketTimeoutException,Thread Group_Prod1 1-1,true,2683,1,1,0,1,0,INFPU07042,342
1515048660329,14578,NoFileUpload PE7978,Non HTTP response code: java.net.SocketTimeoutException,Thread Group_Prod1 1-1,false,2683,1,1,0,1,1,INFPU07042,255
1515048674922,8495,NoFileUpload PE7954,200,Thread Group_Prod1 1-1,true,713,1,1,8495,1,0,INFPU07042,250
1515048683464,8721,FileUpload D15_PE7999_Ignore,422,Thread Group_Prod1 1-1,false,1258,1,1,8721,1,1,INFPU07042,340
1515048692238,10247,NoFileUpload PE7795,Non HTTP response code: java.net.SocketTimeoutException,Thread Group_Prod1 1-1,false,2683,1,1,0,1,1,INFPU07042,248
1515048702536,4810,NoFileUpload B17_PE7046_AU_Comp2,200,Thread Group_Prod1 1-1,true,901,1,1,4809,1,0,INFPU07042,273
1515048707367,3297,NoFileUpload B17_PE7046_US_Comp1,200,Thread Group_Prod1 1-1,true,897,1,1,3296,1,0,INFPU07042,259
1515048710711,3672,NoFileUpload B17_PE7046_IN_Comp1,200,Thread Group_Prod1 1-1,true,898,1,1,3672,1,0,INFPU07042,254
1515048714434,3687,NoFileUpload B17_PE7046_ZA_Comp2,200,Thread Group_Prod1 1-1,true,901,1,1,3687,1,0,INFPU07042,348
1515048718161,10261,NoFileUpload B17_PE7773_NUM_EMP is 7,Non HTTP response code: java.net.SocketTimeoutException,Thread Group_Prod1 1-1,false,2683,1,1,0,1,1,INFPU07042,261
1515048728513,10257,NoFileUpload B17_PE7773_NUM_EMP is 8.1_boundry is 8,Non HTTP response code: java.net.SocketTimeoutException,Thread Group_Prod1 1-1,false,2683,1,1,0,1,1,INFPU07042,255
1515048738822,10263,NoFileUpload B17_PE7773_NUM_EMP is 9_boundry is 8,Non HTTP response code: java.net.SocketTimeoutException,Thread Group_Prod1 1-1,false,2683,1,1,0,1,1,INFPU07042,261
1515048749138,6241,FileUpload D10_PE5216_ImpactedbyComment,200,Thread Group_Prod1 1-1,true,1364,1,1,6240,1,0,INFPU07042,455
1515048755527,5669,NoFileUpload B17_PE7044_expression,200,Thread Group_Prod1 1-1,true,516,1,1,5668,1,0,INFPU07042,251
1515048761197,8354,NoFileUpload B17_PE7044_range,200,Thread Group_Prod1 1-1,true,934,1,1,8353,1,0,INFPU07042,253
1515048769713,8617,NoFileUpload B17_PE7044_rangeValidationRefTable,200,Thread Group_Prod1 1-1,true,922,1,1,8617,1,0,INFPU07042,255
1515048778436,8077,NoFileUpload B17_PE7044_rangeValidationRefTable_dimensions,200,Thread Group_Prod1 1-1,true,963,1,1,8077,1,0,INFPU07042,252
1515048786620,22582,FileUpload D13_PE5691_1Record_Ignore,200,Thread Group_Prod1 1-1,false,102,1,1,22582,1,1,INFPU07042,702
1515048809215,17087,FileUpload D15_PE5691_1Record_Ignore,200,Thread Group_Prod1 1-1,false,102,1,1,17087,1,1,INFPU07042,253
1515048826341,4411,FileUpload D12_PE6027_Ref Table,200,Thread Group_Prod1 1-1,true,2169,1,1,4411,1,0,INFPU07042,395
1515048830889,2351,FileUpload D11_PE6030,200,Thread Group_Prod1 1-1,true,3265,1,1,2350,1,0,INFPU07042,272
1515048833408,1633,NoFileUpload B17_PE7033,200,Thread Group_Prod1 1-1,true,897,1,1,1632,1,0,INFPU07042,253
1515048835045,764,NoFileUpload B18_PE7314,200,Thread Group_Prod1 1-1,true,531,1,1,761,1,0,INFPU07042,0
1515048835873,4798,FileUpload D16_PE7071_1Record,200,Thread Group_Prod1 1-1,true,6392,1,1,4795,1,0,INFPU07042,259
1515048840704,4273,FileUpload D17_PE7071_1Record,200,Thread Group_Prod1 1-1,true,7144,1,1,4270,1,0,INFPU07042,255
1515048845075,4075,FileUpload D18_PE7071_1Record,200,Thread Group_Prod1 1-1,true,6991,1,1,4074,1,0,INFPU07042,256
1515048849210,4095,FileUpload D20_PE7071_1Record,200,Thread Group_Prod1 1-1,true,5211,1,1,4092,1,0,INFPU07042,268
1515048853366,4019,FileUpload D12_PE7611,200,Thread Group_Prod1 1-1,true,1568,1,1,4017,1,0,INFPU07042,302
1515048857436,3938,FileUpload D12_PE7611,200,Thread Group_Prod1 1-1,true,1619,1,1,3938,1,0,INFPU07042,528
1515048861422,3115,FileUpload D12_PE7611,200,Thread Group_Prod1 1-1,true,1516,1,1,3115,1,0,INFPU07042,258
1515048864584,4103,FileUpload D12_PE7611,200,Thread Group_Prod1 1-1,true,1568,1,1,4102,1,0,INFPU07042,254
1515048868733,6174,FileUpload D12_PE7611,200,Thread Group_Prod1 1-1,true,2016,1,1,6172,1,0,INFPU07042,256
1515048874980,5437,FileUpload D12_PE7611,200,Thread Group_Prod1 1-1,true,1839,1,1,5437,1,0,INFPU07042,264
1515048880472,6098,FileUpload D12_PE7611,200,Thread Group_Prod1 1-1,true,1839,1,1,6098,1,0,INFPU07042,259
1515048886617,6003,FileUpload D12_PE7611,200,Thread Group_Prod1 1-1,true,2024,1,1,6002,1,0,INFPU07042,252
1515048892667,5449,FileUpload D12_PE7611,200,Thread Group_Prod1 1-1,true,2025,1,1,5448,1,0,INFPU07042,335
1515048898165,4334,FileUpload D12_PE7611,200,Thread Group_Prod1 1-1,true,1737,1,1,4333,1,0,INFPU07042,257
1515048902549,2347,FileUpload B21_6713CSV_SkipLastBlankRow,200,Thread Group_Prod1 1-1,true,1728,1,1,2345,1,0,INFPU07042,314
1515048904897,1916,FileUpload B21_6713CSV_SkipInitialRow,200,Thread Group_Prod1 1-1,true,1437,1,1,1915,1,0,INFPU07042,256
1515048906868,741,FileUpload B21_6713CSV_SkipMiddleBlankRows,200,Thread Group_Prod1 1-1,true,2031,1,1,740,1,0,INFPU07042,0
1515048907647,2769,FileUpload B21_6713Excel_SkipInitialRow,200,Thread Group_Prod1 1-1,true,1437,1,1,2769,1,0,INFPU07042,258
1515048910449,2498,FileUpload B21_6713Excel_SkipLastBlankRow,200,Thread Group_Prod1 1-1,true,1728,1,1,2498,1,0,INFPU07042,252
1515048912992,3432,FileUpload B21_6713Excel_SkipMiddleRow,200,Thread Group_Prod1 1-1,true,2031,1,1,3431,1,0,INFPU07042,259
1515048916472,1909,NoFileUpload B17_PE7631_metaData,200,Thread Group_Prod1 1-1,true,590,1,1,1908,1,0,INFPU07042,265
1515048918433,779,NoFileUpload B17_PE7631_metaData,200,Thread Group_Prod1 1-1,true,590,1,1,779,1,0,INFPU07042,0
1515048919253,1835,NoFileUpload B17_PE7631_Autocorrect,200,Thread Group_Prod1 1-1,true,828,1,1,1833,1,0,INFPU07042,260
1515048921119,766,NoFileUpload B17_PE7631,200,Thread Group_Prod1 1-1,true,818,1,1,766,1,0,INFPU07042,0
1515048921940,1998,NoFileUpload B21_7045RawJson_NonNumerciData,200,Thread Group_Prod1 1-1,true,838,1,1,1997,1,0,INFPU07042,255
1515048924013,1782,NoFileUpload B21_7045RawJson_SkipBlankCols,200,Thread Group_Prod1 1-1,true,757,1,1,1782,1,0,INFPU07042,318
1515048925833,769,NoFileUpload B21_7045RawJson_SkipNonNumericCols,200,Thread Group_Prod1 1-1,true,661,1,1,769,1,0,INFPU07042,0
1515048926654,2147,NoFileUpload B21_7045RawJson_WithDimesion,200,Thread Group_Prod1 1-1,true,845,1,1,2147,1,0,INFPU07042,257
1515048928859,2273,NoFileUpload B21_7045RawJson_SingleNonBlankValue,200,Thread Group_Prod1 1-1,true,601,1,1,2273,1,0,INFPU07042,256
1515048931159,2061,NoFileUpload B21_7045RawJson_WithOtherValidation,200,Thread Group_Prod1 1-1,true,895,1,1,2061,1,0,INFPU07042,250
1515048933238,2180,FileUpload D20_PE7045_7045CSV_SimpleSequentialCheck,200,Thread Group_Prod1 1-1,true,2016,1,1,2179,1,0,INFPU07042,318
1515048935468,3940,FileUpload D20_PE7045_7045Excel_SimpleSequentialCheck,200,Thread Group_Prod1 1-1,true,2004,1,1,3940,1,0,INFPU07042,262
1515048939459,2139,FileUpload D20_PE7045_7045CSV_SkipBlankColumn,200,Thread Group_Prod1 1-1,true,1728,1,1,2139,1,0,INFPU07042,253
1515048941645,3788,FileUpload D20_PE7045_7045EXCEL_SkipBlankColumn,200,Thread Group_Prod1 1-1,true,2046,1,1,3788,1,0,INFPU07042,258
1515048945466,2098,FileUpload D20_PE7045_7045CSV_SkipNonNumericData,200,Thread Group_Prod1 1-1,true,1610,1,1,2098,1,0,INFPU07042,265
1515048947617,3623,FileUpload D20_PE7045_7045EXCEL_SkipNonNumericData,200,Thread Group_Prod1 1-1,true,2552,1,1,3623,1,0,INFPU07042,266
1515048951291,1925,NoFileUpload B24_PE7474_Testcase1,200,Thread Group_Prod1 1-1,true,890,1,1,1925,1,0,INFPU07042,253
1515048953261,895,NoFileUpload B24_PE7474_Testcase2,200,Thread Group_Prod1 1-1,true,891,1,1,895,1,0,INFPU07042,0
1515048954189,1941,NoFileUpload B24_PE7474_Testcase3,200,Thread Group_Prod1 1-1,true,798,1,1,1941,1,0,INFPU07042,334
1515048956175,867,NoFileUpload B24_PE7474_Testcase4,200,Thread Group_Prod1 1-1,true,869,1,1,867,1,0,INFPU07042,0
1515048957083,1740,NoFileUpload B24_PE7474_Testcase5,200,Thread Group_Prod1 1-1,true,895,1,1,1739,1,0,INFPU07042,256
1515048958871,1034,NoFileUpload B24_PE7474_Testcase6,200,Thread Group_Prod1 1-1,true,889,1,1,1034,1,0,INFPU07042,0
1515048959958,25713,FileUpload D12_PE7474,200,Thread Group_Prod1 1-1,true,4272,1,1,25713,1,0,INFPU07042,271
1515048985731,2866,NoFileUpload B17_PE7689_RefTable,200,Thread Group_Prod1 1-1,true,963,1,1,2866,1,0,INFPU07042,393
1515048988692,4070,NoFileUpload D20_PE7440_ISBLANK_ImpactedbyComment,200,Thread Group_Prod1 1-1,true,1171,1,1,4070,1,0,INFPU07042,250
1515048992811,3870,NoFileUpload D20_PE7440_ISNOTBLANK_LENGTH_ImpactedbyComment,200,Thread Group_Prod1 1-1,true,1176,1,1,3869,1,0,INFPU07042,258
1515048996733,1665,FileUpload D14_PE5679_EqualToWithAllBlank_POSCODE=2,200,Thread Group_Prod1 1-1,true,2890,1,1,1663,1,0,INFPU07042,253
1515048998446,732,FileUpload D14_PE5679_3 Null string and 1 Blank_POSCODE=2,200,Thread Group_Prod1 1-1,true,3071,1,1,732,1,0,INFPU07042,0
1515048999231,2509,FileUpload D14_PE5679_2 Null String and 2 Blank_POSCODE=2,200,Thread Group_Prod1 1-1,true,2885,1,1,2508,1,0,INFPU07042,269
1515049001786,2105,FileUpload D14_PE5679_1 Null String_1Data_2 Blank_POSCODE=2,200,Thread Group_Prod1 1-1,true,1760,1,1,2103,1,0,INFPU07042,258
1515049003926,1920,FileUpload D14_PE5679_NoBlanksNoNullAllUnique_POSCODE=2,200,Thread Group_Prod1 1-1,true,3216,1,1,1920,1,0,INFPU07042,260
1515049005899,950,FileUpload D14_PE5679_3samedata_1Blank_POSCODE=2,200,Thread Group_Prod1 1-1,true,3062,1,1,949,1,0,INFPU07042,0
1515049006899,2095,FileUpload D14_PE5679_POSCODEGreaterThan2,200,Thread Group_Prod1 1-1,true,3259,1,1,2094,1,0,INFPU07042,266
1515049009045,2213,FileUpload D14_PE5679_POSCODEGreaterThanEqualTo2,200,Thread Group_Prod1 1-1,true,1761,1,1,2212,1,0,INFPU07042,277
1515049011307,1968,FileUpload D14_PE5679_LessThan,200,Thread Group_Prod1 1-1,true,2885,1,1,1967,1,0,INFPU07042,252
1515049013312,2038,FileUpload D14_PE5679_LessThanEqualTo1,200,Thread Group_Prod1 1-1,true,2852,1,1,2037,1,0,INFPU07042,262
1515049015397,9154,FileUpload D20_PE7724_CSV_ref,200,Thread Group_Prod1 1-1,true,39299,1,1,7497,1,0,INFPU07042,257
1515049024613,19144,FileUpload D20_PE7724_Excel_ref_ImpactedbyComment,200,Thread Group_Prod1 1-1,true,77696,1,1,15315,1,0,INFPU07042,338
1515049043814,10557,FileUpload D15_PE7056_uploadMultipleFile_impactedbyComment,200,Thread Group_Prod1 1-1,true,5765,1,1,10555,1,0,INFPU07042,253
1515049054428,2427,NoFileUpload B17_PE7056_validateAggregates,200,Thread Group_Prod1 1-1,true,790,1,1,2427,1,0,INFPU07042,257
1515049056906,2413,7056_performDefaultActions,200,Thread Group_Prod1 1-1,true,515,1,1,2413,1,0,INFPU07042,338
1515049059365,4627,7056_crossSectionChecks,200,Thread Group_Prod1 1-1,false,1352,1,1,4626,1,1,INFPU07042,254
1515049064050,2238,NoFileUpload B25_PE7241_EmailValidation -withInvalidAndValidEmailIdInDimension,200,Thread Group_Prod1 1-1,true,850,1,1,2238,1,0,INFPU07042,261
1515049066344,2201,NoFileUpload B25_PE7241_EmailValidation-withAllInvalidEmailIdInDimension,200,Thread Group_Prod1 1-1,true,876,1,1,2200,1,0,INFPU07042,254
1515049068597,2448,NoFileUpload B25_PE7241_EmailValidation -withNullStringAndBlankEmailIdInDimension,200,Thread Group_Prod1 1-1,true,845,1,1,2448,1,0,INFPU07042,259
1515049071095,2813,NoFileUpload B25_PE7241_EmailValidation_withAllBlankEmailIdInDimension,200,Thread Group_Prod1 1-1,true,823,1,1,2812,1,0,INFPU07042,252
1515049073956,2900,NoFileUpload B25_PE7241_EmailValidation_withAllEmailIdAsNullStringInDimension,200,Thread Group_Prod1 1-1,true,840,1,1,2899,1,0,INFPU07042,252
1515049076929,2772,NoFileUpload B25_PE7241_EmailValidation_withAllValidEmailIdInDimension,200,Thread Group_Prod1 1-1,true,868,1,1,2771,1,0,INFPU07042,267
1515049079750,2683,NoFileUpload B25_PE7241_PhoneValidation_withAllBlankPhoneNumberInDimension,200,Thread Group_Prod1 1-1,true,781,1,1,2682,1,0,INFPU07042,257
1515049082480,2624,NoFileUpload B25_PE7241_PhoneValidation_withAllInvalidPhoneNumberInDimension,200,Thread Group_Prod1 1-1,true,889,1,1,2624,1,0,INFPU07042,259
1515049085153,2095,NoFileUpload B25_PE7241_PhoneValidation_withAllNullStringAndBlankPhoneNumberInDimension,200,Thread Group_Prod1 1-1,true,799,1,1,2095,1,0,INFPU07042,257
1515049087298,2039,NoFileUpload B25_PE7241_PhoneValidation_withAllNullStringPhoneNumberInDimension,200,Thread Group_Prod1 1-1,true,828,1,1,2039,1,0,INFPU07042,947
1515049089381,2569,NoFileUpload B25_PE7241_PhoneValidation_withAllValidPhoneNumberInDimension,200,Thread Group_Prod1 1-1,true,874,1,1,2569,1,0,INFPU07042,259
1515049091998,2435,NoFileUpload B25_PE7241_PhoneValidation_withValidAndInvalidPhoneNumberInDimension,200,Thread Group_Prod1 1-1,true,864,1,1,2434,1,0,INFPU07042,258
1515049094481,2565,NoFileUpload B25_PE7241_RequiredValidation__withAllNullStringInDimension,200,Thread Group_Prod1 1-1,true,867,1,1,2564,1,0,INFPU07042,255
1515049097098,2473,NoFileUpload B25_PE7241_RequiredValidation__withAllValidValuesInDimension,200,Thread Group_Prod1 1-1,true,850,1,1,2466,1,0,INFPU07042,255
1515049099621,2465,NoFileUpload B25_PE7241_RequiredValidation_withAllblankValuesInDimension ,200,Thread Group_Prod1 1-1,true,864,1,1,2465,1,0,INFPU07042,254
1515049102120,2259,"NoFileUpload B25_PE7241_RequiredValidation_WithNullString,BlankAndValuesInDimension",200,Thread Group_Prod1 1-1,true,881,1,1,2258,1,0,INFPU07042,252
1515049104430,1881,NoFileUpload B25_PE7241_RequiredValidation_WithNullStringlAndBlankInDimension,200,Thread Group_Prod1 1-1,true,870,1,1,1881,1,0,INFPU07042,256
1515049106362,737,NoFileUpload B25_PE7241_RequiredValidation_WithValidAndInvalidValue,200,Thread Group_Prod1 1-1,true,874,1,1,737,1,0,INFPU07042,0
1515049107147,1887,NoFileUpload B25_PE7241_CheckBoxes_UploadMultipleFile,200,Thread Group_Prod1 1-1,true,795,1,1,1887,1,0,INFPU07042,259
1515049109083,1354,NoFileUpload B25_PE7241_Dimension_CrossSection,200,Thread Group_Prod1 1-1,true,865,1,1,1354,1,0,INFPU07042,0
1515049110481,3163,NoFileUpload B25_PE7241_MDA_Dimension,200,Thread Group_Prod1 1-1,true,790,1,1,3163,1,0,INFPU07042,258
1515049113694,13334,FileUpload D15_PE-7257_AllValidDateAndDoubleValue(Positive scenario),200,Thread Group_Prod1 1-1,true,18263,1,1,12101,1,0,INFPU07042,255
1515049127031,7859,FileUpload D15_PE-7257_AllValidAndInvalidDateAndDoubleValue(Negative scenario),200,Thread Group_Prod1 1-1,true,21254,1,1,6883,1,0,INFPU07042,1691
1515049134892,4113,NoFileUpload D20_PE7506_crosssection_with multiple combination for LPALL_399A,200,Thread Group_Prod1 1-1,false,1274,1,1,4113,1,1,INFPU07042,255
1515049139060,4123,NoFileUpload D20_PE7506_crosssection_with 3 Dimensions for LPALL_399A,200,Thread Group_Prod1 1-1,false,1301,1,1,4123,1,1,INFPU07042,259
1515049143235,3934,"NoFileUpload D20_PE7506_crosssection_13LATAM_01"": ""Y""",200,Thread Group_Prod1 1-1,false,1286,1,1,3934,1,1,INFPU07042,258
1515049147222,3672,"NoFileUpload D20_PE7506_crosssection_ EE_group_13LATAM_01"": ""N""",200,Thread Group_Prod1 1-1,false,1145,1,1,3671,1,1,INFPU07042,255
1515049150944,3534,NoFileUpload D20_PE7506_crosssection_when  EE_group_13LATAM is not present,200,Thread Group_Prod1 1-1,true,1024,1,1,3534,1,0,INFPU07042,252
1515049154530,6029,NoFileUpload D20_PE7506_crosssection_with Dimension for LPALL_399A,200,Thread Group_Prod1 1-1,false,1352,1,1,6028,1,1,INFPU07042,266
1515049160615,6481,NoFileUpload D20_PE7506_crosssection_with Dimension for LPALL_399A 1 as Y others as N,200,Thread Group_Prod1 1-1,false,1286,1,1,6480,1,1,INFPU07042,584
1515049167148,6062,FileUpload D22_PE5415_MultiSheetSuccess,200,Thread Group_Prod1 1-1,true,3597,1,1,6061,1,0,INFPU07042,340
1515049173266,5907,FileUpload D22_PE5415_MultiSheetBadRequest_Ignore,200,Thread Group_Prod1 1-1,false,102,1,1,5907,1,1,INFPU07042,264
1515049179174,5753,FileUpload D22_PE5415_MultiSheetCorrectRequest,200,Thread Group_Prod1 1-1,true,3470,1,1,5753,1,0,INFPU07042,257
1515049184979,3157,FileUpload D23_PE5415_Step1SingleSheetBadReq_Ignore,422,Thread Group_Prod1 1-1,false,1258,1,1,3156,1,1,INFPU07042,270
1515049188181,3435,FileUpload D22_PE5415_Step1SingleSheetCorrectReq,200,Thread Group_Prod1 1-1,true,4641,1,1,3434,1,0,INFPU07042,260
1515049191665,1793,FileUpload D22_PE5415_Step3MappingCompanyJson,200,Thread Group_Prod1 1-1,true,1587,1,1,1793,1,0,INFPU07042,353
1515049193519,2218,FileUpload D22_PE5415_Step3MappingCompanyExcel,200,Thread Group_Prod1 1-1,true,1601,1,1,2218,1,0,INFPU07042,0
1515049195779,3458,FileUpload D22_PE5415_Step3MappingColumnExcel,200,Thread Group_Prod1 1-1,true,4442,1,1,3456,1,0,INFPU07042,255
1515049199290,1362,FileUpload D22_PE5415_Step3MappingColumnJson,200,Thread Group_Prod1 1-1,true,4394,1,1,1361,1,0,INFPU07042,260
1515049200705,680,FileUpload D22_PE5415_Step3MappingColumnJsonWithoutCountry,200,Thread Group_Prod1 1-1,true,2853,1,1,679,1,0,INFPU07042,0
1515049201436,1588,FileUpload D22_PE5415_Step3MappingColumnJsonWithCountry,200,Thread Group_Prod1 1-1,true,1587,1,1,1587,1,0,INFPU07042,255
1515049407576,1420,FileUpload D15_PE-8110_ErrorCell,200,Thread Group_Prod1 1-1,false,1516,1,1,1420,1,1,INFPU07042,14
1515049409099,782,FileUpload D15_PE-8110_ErrorCell_Ignore,422,Thread Group_Prod1 1-1,false,649407,1,1,685,1,1,INFPU07042,0
1515049409980,331,FileUpload D15_PE-8110_ErrorCell_Ignore,400,Thread Group_Prod1 1-1,false,357,1,1,330,1,1,INFPU07042,2
1515049410355,80,FileUpload D15_PE-5678_SequentialWithOtherValidations,200,Thread Group_Prod1 1-1,true,5424,1,1,78,1,0,INFPU07042,14
1515049410533,79,NoFileUpload D15_PE-5678_SequentialWithOtherValidations,200,Thread Group_Prod1 1-1,true,1960,1,1,77,1,0,INFPU07042,0
1515049410685,73,FileUpload D20_PE7172,200,Thread Group_Prod1 1-1,true,4754,1,1,73,1,0,INFPU07042,0
1515049410920,117,FileUpload D15_PE-7257_US_CSV,200,Thread Group_Prod1 1-1,true,11233,1,1,115,1,0,INFPU07042,0
1515049411304,255,FileUpload D15_PE-7257_US_Excel,200,Thread Group_Prod1 1-1,false,50301,1,1,217,1,1,INFPU07042,0
1515049411759,22,NoFileUpload PE5668 T1_Chk response with Vivek for [null],200,Thread Group_Prod1 1-1,true,1145,1,1,22,1,0,INFPU07042,0
1515049411791,20,NoFileUpload PE7954,200,Thread Group_Prod1 1-1,true,915,1,1,19,1,0,INFPU07042,0
1515049411823,37,FileUpload D15_PE7999_Ignore,422,Thread Group_Prod1 1-1,false,1235,1,1,36,1,1,INFPU07042,0
1515049411871,27,NoFileUpload PE7795,200,Thread Group_Prod1 1-1,true,1327,1,1,27,1,0,INFPU07042,0
1515049411929,96,NoFileUpload B17_PE7773_NUM_EMP is 8.1_boundry is 8,200,Thread Group_Prod1 1-1,true,3186,1,1,95,1,0,INFPU07042,0
1515049412052,34,NoFileUpload B17_PE7773_NUM_EMP is 9_boundry is 8,200,Thread Group_Prod1 1-1,true,3184,1,1,33,1,0,INFPU07042,0
1515049412109,123,FileUpload D10_PE5216_ImpactedbyComment,200,Thread Group_Prod1 1-1,true,1341,1,1,122,1,0,INFPU07042,0
1515049412323,207,FileUpload D16_PE7071_1Record,200,Thread Group_Prod1 1-1,true,6369,1,1,207,1,0,INFPU07042,0
1515049412589,87,FileUpload D17_PE7071_1Record,200,Thread Group_Prod1 1-1,true,7121,1,1,85,1,0,INFPU07042,4
1515049412761,91,FileUpload D18_PE7071_1Record,200,Thread Group_Prod1 1-1,true,6968,1,1,89,1,0,INFPU07042,0
1515049412903,89,FileUpload D20_PE7071_1Record,200,Thread Group_Prod1 1-1,true,5188,1,1,87,1,0,INFPU07042,0
1515049413042,102,FileUpload D12_PE7611,200,Thread Group_Prod1 1-1,true,1545,1,1,102,1,0,INFPU07042,0
1515049413205,67,FileUpload D12_PE7611,200,Thread Group_Prod1 1-1,true,1596,1,1,65,1,0,INFPU07042,0
1515049413321,64,FileUpload D12_PE7611,200,Thread Group_Prod1 1-1,true,1493,1,1,64,1,0,INFPU07042,0
1515049413432,69,FileUpload D12_PE7611,200,Thread Group_Prod1 1-1,true,1545,1,1,69,1,0,INFPU07042,0
1515049413547,59,FileUpload D12_PE7611,200,Thread Group_Prod1 1-1,true,1993,1,1,59,1,0,INFPU07042,0
1515049413647,55,FileUpload D12_PE7611,200,Thread Group_Prod1 1-1,true,1816,1,1,55,1,0,INFPU07042,0
1515049413748,72,FileUpload D12_PE7611,200,Thread Group_Prod1 1-1,true,1816,1,1,71,1,0,INFPU07042,0
1515049413869,65,FileUpload D12_PE7611,200,Thread Group_Prod1 1-1,true,2001,1,1,65,1,0,INFPU07042,0
1515049413981,62,FileUpload D12_PE7611,200,Thread Group_Prod1 1-1,true,2002,1,1,62,1,0,INFPU07042,0
1515049414091,59,FileUpload D12_PE7611,200,Thread Group_Prod1 1-1,true,1714,1,1,59,1,0,INFPU07042,0
