timeStamp,elapsed,label,responseCode,threadName,success,bytes,grpThreads,allThreads,Latency,SampleCount,ErrorCount,Hostname,Connect
1519326199148,5161,FileUpload F1_PE-8157_Ignore,200,Thread Group_Prod1 1-1,false,6313,1,1,5160,1,1,infpu013335,325
1519326204322,1037,FileUpload F1_PE-8110_ErrorCell,200,Thread Group_Prod1 1-1,true,1571,1,1,1037,1,0,infpu013335,243
1519326205383,3666,FileUpload F2_PE-8110_ErrorCell_Ignore,422,Thread Group_Prod1 1-1,false,650888,1,1,1950,1,1,infpu013335,0
1519326209071,2352,FileUpload F3_PE-8110_ErrorCell_Ignore,400,Thread Group_Prod1 1-1,false,385,1,1,2352,1,1,infpu013335,245
1519326211430,770,FileUpload F4_PE-5678_SequentialWithOtherValidations,200,Thread Group_Prod1 1-1,true,5471,1,1,769,1,0,infpu013335,248
1519326212212,270,NoFileUpload N1_PE-5678_LOOK_UP_CHECK1,200,Thread Group_Prod1 1-1,false,1072,1,1,270,1,1,infpu013335,0
1519326212491,255,NoFileUpload N1_PE-5678_SequentialWithOtherValidations,200,Thread Group_Prod1 1-1,true,994,1,1,255,1,0,infpu013335,0
1519326212754,255,NoFileUpload N2_PE-5678_SequentialWithOtherValidations,200,Thread Group_Prod1 1-1,true,959,1,1,255,1,0,infpu013335,0
1519326213024,815,"NoFileUpload_Null Validation_crossSectionChecks_LPALL_566 is """"",200,Thread Group_Prod1 1-1,true,6764,1,1,814,1,0,infpu013335,0
1519326213852,1875,NoFileUpload_Null Validation_crossSectionChecks_LPALL_566 is null,200,Thread Group_Prod1 1-1,true,6760,1,1,1874,1,0,infpu013335,261
1519326215739,315,"NoFileUpload_Null Validation_crossSectionChecks_LPALL_566 is ""null""",200,Thread Group_Prod1 1-1,true,6903,1,1,315,1,0,infpu013335,0
1519326216065,1833,"NoFileUpload_Null Validation_crossSectionChecks_LPALL_566 is ""   """,200,Thread Group_Prod1 1-1,true,6767,1,1,1832,1,0,infpu013335,254
1519326217910,258,NoFileUpload N3_PE-7172MDA,200,Thread Group_Prod1 1-1,true,664,1,1,258,1,0,infpu013335,0
1519326218184,789,FileUpload F5_PE7172_Fix,200,Thread Group_Prod1 1-1,false,4477,1,1,788,1,1,infpu013335,255
1519326218982,514,NoFileUpload N4_PE-8032MDA,200,Thread Group_Prod1 1-1,true,664,1,1,514,1,0,infpu013335,0
1519326219511,821,NoFileUpload N5_PE-8070,200,Thread Group_Prod1 1-1,true,886,1,1,821,1,0,infpu013335,0
1519326220343,1290,NoFileUpload N73_PE5668 T2_Temp,200,Thread Group_Prod1 1-1,true,609,1,1,1290,1,0,infpu013335,257
1519326221647,263,NoFileUpload N74_PE5668 T3_Temp,200,Thread Group_Prod1 1-1,true,753,1,1,263,1,0,infpu013335,0
1519326221922,263,NoFileUpload N75_PE5668 T4_Temp,200,Thread Group_Prod1 1-1,true,706,1,1,263,1,0,infpu013335,0
1519326222193,267,NoFileUpload N76_PE5668 T5_Temp,200,Thread Group_Prod1 1-1,true,725,1,1,267,1,0,infpu013335,0
1519326222467,1224,NoFileUpload N78_PE5668 T7_Temp,200,Thread Group_Prod1 1-1,true,705,1,1,1224,1,0,infpu013335,245
1519326223713,249,NoFileUpload N79_PE5668 T8_Temp,200,Thread Group_Prod1 1-1,true,607,1,1,249,1,0,infpu013335,0
1519326223970,1006,FileUpload F6_PE-7257_US_CSV_Shuffle,200,Thread Group_Prod1 1-1,false,5797,1,1,1005,1,1,infpu013335,0
1519326224985,1871,FileUpload F7_PE-7257_US_Excel_Shuffle,200,Thread Group_Prod1 1-1,false,9472,1,1,1870,1,1,infpu013335,258
1519326226885,563,NoFileUpload N6_PE7978,200,Thread Group_Prod1 1-1,true,6632,1,1,562,1,0,infpu013335,0
1519326227460,743,NoFileUpload N7_PE7954,200,Thread Group_Prod1 1-1,true,727,1,1,743,1,0,infpu013335,247
1519326228214,748,NoFileUpload N77_PE5668 T6,200,Thread Group_Prod1 1-1,true,716,1,1,748,1,0,infpu013335,0
1519326228969,252,FileUpload F8_PE7999_Ignore since files are identical,422,Thread Group_Prod1 1-1,false,1282,1,1,252,1,1,infpu013335,0
1519326229229,252,NoFileUpload N8_ PE7795,200,Thread Group_Prod1 1-1,true,717,1,1,252,1,0,infpu013335,0
1519326229488,805,NoFileUpload N9_PE7046_AU_Comp2,200,Thread Group_Prod1 1-1,true,914,1,1,805,1,0,infpu013335,259
1519326230300,264,NoFileUpload N10_PE7046_US_Comp1,200,Thread Group_Prod1 1-1,true,910,1,1,264,1,0,infpu013335,0
1519326230572,263,NoFileUpload N11_PE7046_IN_Comp1,200,Thread Group_Prod1 1-1,true,910,1,1,263,1,0,infpu013335,0
1519326230842,263,NoFileUpload N12_PE7046_ZA_Comp2,200,Thread Group_Prod1 1-1,true,914,1,1,263,1,0,infpu013335,0
1519326231113,798,NoFileUpload N13_PE7773_NUM_EMP is 7_Fix,200,Thread Group_Prod1 1-1,false,1099,1,1,798,1,1,infpu013335,0
1519326231927,1542,NoFileUpload N14_PE7773_NUM_EMP is 8.1_boundry is 8,200,Thread Group_Prod1 1-1,true,1100,1,1,1542,1,0,infpu013335,255
1519326233479,273,NoFileUpload N15_PE7773_NUM_EMP is 9_boundry is 8,200,Thread Group_Prod1 1-1,true,1099,1,1,273,1,0,infpu013335,0
1519326233765,272,FileUpload F9_PE5216_ImpactedbyComment,200,Thread Group_Prod1 1-1,false,1356,1,1,271,1,1,infpu013335,0
1519326234044,759,NoFileUpload N16_PE7044_expression,200,Thread Group_Prod1 1-1,true,674,1,1,759,1,0,infpu013335,251
1519326234803,507,NoFileUpload N17_PE7044_range,200,Thread Group_Prod1 1-1,true,917,1,1,507,1,0,infpu013335,0
1519326235345,275,NoFileUpload N18_PE7044_rangeValidationRefTable,200,Thread Group_Prod1 1-1,true,912,1,1,275,1,0,infpu013335,0
1519326235644,285,NoFileUpload N19_PE7044_rangeValidationRefTable_dimensions,200,Thread Group_Prod1 1-1,true,947,1,1,285,1,0,infpu013335,0
1519326235938,1578,FileUpload F10_PE5691_1Record_Ignore,400,Thread Group_Prod1 1-1,false,327,1,1,1578,1,1,infpu013335,0
1519326237526,2027,FileUpload F11_PE5691_1Record_Ignore,400,Thread Group_Prod1 1-1,false,327,1,1,2027,1,1,infpu013335,250
1519326239563,997,FileUpload F12_PE6027_Ref Table,200,Thread Group_Prod1 1-1,true,2193,1,1,996,1,0,infpu013335,244
1519326240582,509,FileUpload F13_PE6030,200,Thread Group_Prod1 1-1,true,3289,1,1,508,1,0,infpu013335,0
1519326241122,253,NoFileUpload N20_PE7033,200,Thread Group_Prod1 1-1,true,915,1,1,253,1,0,infpu013335,0
1519326241376,250,NoFileUpload N21_PE7314,200,Thread Group_Prod1 1-1,true,771,1,1,250,1,0,infpu013335,0
1519326241652,2042,FileUpload F14_PE7071_1Record_Shuffle,200,Thread Group_Prod1 1-1,false,5862,1,1,2041,1,1,infpu013335,249
1519326243703,1759,FileUpload F15_PE7071_1Record,200,Thread Group_Prod1 1-1,true,5860,1,1,1759,1,0,infpu013335,247
1519326245484,1263,FileUpload F16_PE7071_1Record,200,Thread Group_Prod1 1-1,true,6461,1,1,1263,1,0,infpu013335,0
1519326246757,2059,FileUpload F17_PE7071_1Record,400,Thread Group_Prod1 1-1,false,365,1,1,2059,1,1,infpu013335,258
1519326248853,1788,FileUpload F18_PE7611,200,Thread Group_Prod1 1-1,false,1989,1,1,1787,1,1,infpu013335,251
1519326250653,1282,FileUpload F19_PE7611,200,Thread Group_Prod1 1-1,false,2070,1,1,1281,1,1,infpu013335,0
1519326251943,1788,FileUpload F20_PE7611,200,Thread Group_Prod1 1-1,true,1967,1,1,1787,1,0,infpu013335,252
1519326253739,1287,FileUpload F21_PE7611,200,Thread Group_Prod1 1-1,true,1989,1,1,1286,1,0,infpu013335,0
1519326255034,1835,FileUpload F22_PE7611,200,Thread Group_Prod1 1-1,false,2452,1,1,1834,1,1,infpu013335,259
1519326256877,1321,FileUpload F23_PE7611,200,Thread Group_Prod1 1-1,false,2275,1,1,1320,1,1,infpu013335,0
1519326258207,1846,FileUpload F24_PE7611,200,Thread Group_Prod1 1-1,false,2275,1,1,1845,1,1,infpu013335,261
1519326260061,1325,FileUpload F25_PE7611,200,Thread Group_Prod1 1-1,false,2445,1,1,1324,1,1,infpu013335,0
1519326261397,1858,FileUpload F26_PE7611,200,Thread Group_Prod1 1-1,false,2446,1,1,1857,1,1,infpu013335,326
1519326263264,1282,FileUpload F27_PE7611,200,Thread Group_Prod1 1-1,true,2173,1,1,1282,1,0,infpu013335,0
1519326264555,759,FileUpload F28_6713CSV_SkipLastBlankRow,200,Thread Group_Prod1 1-1,true,1752,1,1,758,1,0,infpu013335,251
1519326265314,259,FileUpload F29_6713CSV_SkipInitialRow,200,Thread Group_Prod1 1-1,true,1461,1,1,259,1,0,infpu013335,0
1519326265582,260,FileUpload F30_6713CSV_SkipMiddleBlankRows,200,Thread Group_Prod1 1-1,true,2055,1,1,259,1,0,infpu013335,0
1519326265849,516,FileUpload F31_6713Excel_SkipInitialRow,200,Thread Group_Prod1 1-1,true,1461,1,1,516,1,0,infpu013335,0
1519326266390,513,FileUpload F32_6713Excel_SkipLastBlankRow,200,Thread Group_Prod1 1-1,true,1752,1,1,513,1,0,infpu013335,0
1519326266911,1050,FileUpload F33_6713Excel_SkipMiddleRow,200,Thread Group_Prod1 1-1,true,2055,1,1,1049,1,0,infpu013335,258
1519326267969,264,NoFileUpload N22_PE7631_metaData,200,Thread Group_Prod1 1-1,true,604,1,1,264,1,0,infpu013335,0
1519326268244,263,NoFileUpload N23_PE7631_metaData,200,Thread Group_Prod1 1-1,true,609,1,1,263,1,0,infpu013335,0
1519326268514,263,NoFileUpload N24_PE7631_Autocorrect,200,Thread Group_Prod1 1-1,true,836,1,1,263,1,0,infpu013335,0
1519326268785,262,NoFileUpload N25_PE7631,200,Thread Group_Prod1 1-1,true,830,1,1,262,1,0,infpu013335,0
1519326269055,775,NoFileUpload N26_7045RawJson_NonNumerciData,200,Thread Group_Prod1 1-1,true,846,1,1,775,1,0,infpu013335,257
1519326269845,262,NoFileUpload N27_7045RawJson_SkipBlankCols,200,Thread Group_Prod1 1-1,true,771,1,1,262,1,0,infpu013335,0
1519326270114,263,NoFileUpload N28_7045RawJson_SkipNonNumericCols,200,Thread Group_Prod1 1-1,true,675,1,1,263,1,0,infpu013335,0
1519326270388,263,NoFileUpload N29_7045RawJson_WithDimesion,200,Thread Group_Prod1 1-1,true,853,1,1,263,1,0,infpu013335,0
1519326270665,262,NoFileUpload N30_7045RawJson_SingleNonBlankValue,200,Thread Group_Prod1 1-1,true,620,1,1,261,1,0,infpu013335,0
1519326270934,262,NoFileUpload N31_7045RawJson_WithOtherValidation,200,Thread Group_Prod1 1-1,true,903,1,1,262,1,0,infpu013335,0
1519326271204,786,FileUpload F34_PE7045_7045CSV_SimpleSequentialCheck,200,Thread Group_Prod1 1-1,true,2040,1,1,785,1,0,infpu013335,259
1519326272002,542,FileUpload F35_PE7045_7045Excel_SimpleSequentialCheck,200,Thread Group_Prod1 1-1,true,2028,1,1,541,1,0,infpu013335,0
1519326272557,269,FileUpload F36_PE7045_7045CSV_SkipBlankColumn,200,Thread Group_Prod1 1-1,true,1727,1,1,268,1,0,infpu013335,0
1519326272838,539,FileUpload F37_PE7045_7045EXCEL_SkipBlankColumn,200,Thread Group_Prod1 1-1,true,2070,1,1,539,1,0,infpu013335,0
1519326273390,785,FileUpload F38_PE7045_7045CSV_SkipNonNumericData,200,Thread Group_Prod1 1-1,true,1628,1,1,785,1,0,infpu013335,259
1519326274188,540,FileUpload F39_PE7045_7045EXCEL_SkipNonNumericData,200,Thread Group_Prod1 1-1,true,2584,1,1,539,1,0,infpu013335,0
1519326274737,267,NoFileUpload N32_PE7474_Testcase1,200,Thread Group_Prod1 1-1,true,900,1,1,267,1,0,infpu013335,0
1519326275016,270,NoFileUpload N33_PE7474_Testcase2,200,Thread Group_Prod1 1-1,true,903,1,1,270,1,0,infpu013335,0
1519326275297,264,NoFileUpload N34_PE7474_Testcase3,200,Thread Group_Prod1 1-1,true,815,1,1,264,1,0,infpu013335,0
1519326275569,780,NoFileUpload N35_PE7474_Testcase4,200,Thread Group_Prod1 1-1,true,881,1,1,780,1,0,infpu013335,255
1519326276357,275,NoFileUpload N36_PE7474_Testcase5,200,Thread Group_Prod1 1-1,true,905,1,1,275,1,0,infpu013335,0
1519326276641,264,NoFileUpload N37_PE7474_Testcase6,200,Thread Group_Prod1 1-1,true,895,1,1,264,1,0,infpu013335,0
1519326276917,5176,FileUpload F40_PE7474,200,Thread Group_Prod1 1-1,true,4224,1,1,5175,1,0,infpu013335,0
1519326282102,1017,NoFileUpload N38_PE7689_RefTable,200,Thread Group_Prod1 1-1,true,942,1,1,1017,1,0,infpu013335,251
1519326283128,763,NoFileUpload N39_PE7440_ISBLANK_ImpactedbyComment,200,Thread Group_Prod1 1-1,true,1070,1,1,763,1,0,infpu013335,0
1519326283904,261,NoFileUpload N40_PE7440_ISNOTBLANK_LENGTH_ImpactedbyComment,200,Thread Group_Prod1 1-1,true,954,1,1,261,1,0,infpu013335,0
1519326284176,777,FileUpload F41_PE5679_EqualToWithAllBlank_POSCODE=2,200,Thread Group_Prod1 1-1,true,2838,1,1,777,1,0,infpu013335,256
1519326284977,267,FileUpload F42_PE5679_3 Null string and 1 Blank_POSCODE=2,200,Thread Group_Prod1 1-1,true,2669,1,1,266,1,0,infpu013335,0
1519326285256,268,FileUpload F43_PE5679_2 Null String and 2 Blank_POSCODE=2,200,Thread Group_Prod1 1-1,true,2871,1,1,267,1,0,infpu013335,0
1519326285533,266,FileUpload F44_PE5679_1 Null String_1Data_2 Blank_POSCODE=2,200,Thread Group_Prod1 1-1,true,1746,1,1,265,1,0,infpu013335,0
1519326285813,266,FileUpload F45_PE5679_NoBlanksNoNullAllUnique_POSCODE=2,200,Thread Group_Prod1 1-1,true,3240,1,1,265,1,0,infpu013335,0
1519326286105,267,FileUpload F46_PE5679_3samedata_1Blank_POSCODE=2,200,Thread Group_Prod1 1-1,true,2662,1,1,267,1,0,infpu013335,0
1519326286384,766,FileUpload F47_PE5679_POSCODEGreaterThan2,200,Thread Group_Prod1 1-1,true,2841,1,1,766,1,0,infpu013335,253
1519326287159,266,FileUpload F48_PE5679_POSCODEGreaterThanEqualTo2,200,Thread Group_Prod1 1-1,true,1747,1,1,265,1,0,infpu013335,0
1519326287432,262,FileUpload F49_PE5679_LessThan,200,Thread Group_Prod1 1-1,true,2461,1,1,262,1,0,infpu013335,0
1519326287707,263,FileUpload F50_PE5679_LessThanEqualTo1,200,Thread Group_Prod1 1-1,true,2838,1,1,262,1,0,infpu013335,0
1519326288024,2386,FileUpload F52_PE7724_CSV_ref,200,Thread Group_Prod1 1-1,true,21361,1,1,2132,1,0,infpu013335,0
1519326290421,3447,FileUpload F52_PE7724_Excel_ValidationMsg,200,Thread Group_Prod1 1-1,false,29875,1,1,3187,1,1,infpu013335,258
1519326293888,2096,FileUpload F53_PE7056_uploadMultipleFile_TBC for strict or loose_Shuffle,200,Thread Group_Prod1 1-1,true,5235,1,1,2095,1,0,infpu013335,256
1519326295998,765,NoFileUpload N41_PE7056_validateAggregates_Fix,200,Thread Group_Prod1 1-1,false,807,1,1,765,1,1,infpu013335,254
1519326296776,258,NoFileUpload N42_7056_performDefaultActions_Correct as per new code,200,Thread Group_Prod1 1-1,true,674,1,1,258,1,0,infpu013335,0
1519326297042,514,NoFileUpload N43_7056_crossSectionChecks,200,Thread Group_Prod1 1-1,true,1316,1,1,514,1,0,infpu013335,0
1519326297565,260,NoFileUpload N44_PE7241_EmailValidation -withInvalidAndValidEmailIdInDimension,200,Thread Group_Prod1 1-1,true,858,1,1,260,1,0,infpu013335,0
1519326297834,258,NoFileUpload N45_PE7241_EmailValidation-withAllInvalidEmailIdInDimension,200,Thread Group_Prod1 1-1,true,884,1,1,258,1,0,infpu013335,0
1519326298101,800,NoFileUpload N46_PE7241_EmailValidation -withNullStringAndBlankEmailIdInDimension,200,Thread Group_Prod1 1-1,true,853,1,1,800,1,0,infpu013335,265
1519326298909,270,NoFileUpload N47_PE7241_EmailValidation_withAllBlankEmailIdInDimension,200,Thread Group_Prod1 1-1,true,837,1,1,270,1,0,infpu013335,0
1519326299190,270,NoFileUpload N48_PE7241_EmailValidation_withAllEmailIdAsNullStringInDimension,200,Thread Group_Prod1 1-1,true,848,1,1,270,1,0,infpu013335,0
1519326299469,270,NoFileUpload N49_PE7241_EmailValidation_withAllValidEmailIdInDimension,200,Thread Group_Prod1 1-1,true,876,1,1,270,1,0,infpu013335,0
1519326299751,270,NoFileUpload N50_PE7241_PhoneValidation_withAllBlankPhoneNumberInDimension,200,Thread Group_Prod1 1-1,true,800,1,1,270,1,0,infpu013335,0
1519326300030,271,NoFileUpload N51_PE7241_PhoneValidation_withAllInvalidPhoneNumberInDimension,200,Thread Group_Prod1 1-1,true,897,1,1,271,1,0,infpu013335,0
1519326300314,784,NoFileUpload N52_PE7241_PhoneValidation_withAllNullStringAndBlankPhoneNumberInDimension,200,Thread Group_Prod1 1-1,true,813,1,1,784,1,0,infpu013335,260
1519326301107,266,NoFileUpload N53_PE7241_PhoneValidation_withAllNullStringPhoneNumberInDimension,200,Thread Group_Prod1 1-1,true,836,1,1,266,1,0,infpu013335,0
1519326301381,265,NoFileUpload N54_PE7241_PhoneValidation_withAllValidPhoneNumberInDimension,200,Thread Group_Prod1 1-1,true,879,1,1,264,1,0,infpu013335,0
1519326301653,265,NoFileUpload N55_PE7241_PhoneValidation_withValidAndInvalidPhoneNumberInDimension,200,Thread Group_Prod1 1-1,true,872,1,1,265,1,0,infpu013335,0
1519326301932,265,NoFileUpload N56_PE7241_RequiredValidation__withAllNullStringInDimension,200,Thread Group_Prod1 1-1,true,872,1,1,265,1,0,infpu013335,0
1519326302206,264,NoFileUpload N57_PE7241_RequiredValidation__withAllValidValuesInDimension,200,Thread Group_Prod1 1-1,true,858,1,1,264,1,0,infpu013335,0
1519326302482,783,NoFileUpload N58_PE7241_RequiredValidation_withAllblankValuesInDimension ,200,Thread Group_Prod1 1-1,true,869,1,1,783,1,0,infpu013335,260
1519326303278,266,"NoFileUpload N59_PE7241_RequiredValidation_WithNullString,BlankAndValuesInDimension",200,Thread Group_Prod1 1-1,true,884,1,1,266,1,0,infpu013335,0
1519326303553,265,NoFileUpload N60_PE7241_RequiredValidation_WithNullStringlAndBlankInDimension,200,Thread Group_Prod1 1-1,true,875,1,1,265,1,0,infpu013335,0
1519326303827,266,NoFileUpload N61_PE7241_RequiredValidation_WithValidAndInvalidValue,200,Thread Group_Prod1 1-1,true,879,1,1,266,1,0,infpu013335,0
1519326304100,265,NoFileUpload N62_PE7241_CheckBoxes_UploadMultipleFile,200,Thread Group_Prod1 1-1,true,805,1,1,264,1,0,infpu013335,0
1519326304378,265,NoFileUpload N63_PE7241_Dimension_CrossSection,200,Thread Group_Prod1 1-1,true,875,1,1,265,1,0,infpu013335,0
1519326304652,774,NoFileUpload N64_PE7241_MDA_Dimension,200,Thread Group_Prod1 1-1,true,857,1,1,774,1,0,infpu013335,257
1519326305439,2426,FileUpload F54_PE-7257_AllValidDateAndDoubleValue(Positive scenario),200,Thread Group_Prod1 1-1,true,22958,1,1,2168,1,0,infpu013335,0
1519326307865,3103,FileUpload F55_PE-7257_AllValidAndInvalidDateAndDoubleValue(Negative scenario),200,Thread Group_Prod1 1-1,true,25925,1,1,2846,1,0,infpu013335,252
1519326310969,1067,NoFileUpload N65_PE7506_crosssection_with multiple combination for LPALL_399A,200,Thread Group_Prod1 1-1,true,1319,1,1,1067,1,0,infpu013335,264
1519326312051,276,NoFileUpload N66_PE7506_crosssection_with 3 Dimensions for LPALL_399A,200,Thread Group_Prod1 1-1,true,1264,1,1,276,1,0,infpu013335,0
1519326312335,274,"NoFileUpload N67_PE7506_crosssection_13LATAM_01"": ""Y""",200,Thread Group_Prod1 1-1,true,1235,1,1,274,1,0,infpu013335,0
1519326312618,272,"NoFileUpload N68_PE7506_crosssection_ EE_group_13LATAM_01"": ""N""",200,Thread Group_Prod1 1-1,true,1060,1,1,272,1,0,infpu013335,0
1519326312899,275,NoFileUpload N69_PE7506_crosssection_when  EE_group_13LATAM is not present,200,Thread Group_Prod1 1-1,true,1032,1,1,275,1,0,infpu013335,0
1519326313182,1039,NoFileUpload N70_PE7506_crosssection_with Dimension for LPALL_399A,200,Thread Group_Prod1 1-1,true,1321,1,1,1039,1,0,infpu013335,257
1519326314235,267,NoFileUpload N71_PE7506_crosssection_with Dimension for LPALL_399A 1 as Y others as N,200,Thread Group_Prod1 1-1,true,1269,1,1,267,1,0,infpu013335,0
1519326314510,560,FileUpload F56_PE5415_MultiSheetSuccess,200,Thread Group_Prod1 1-1,true,3621,1,1,560,1,0,infpu013335,0
1519326315079,525,FileUpload F57_PE5415_MultiSheetBadRequest_Ignore,400,Thread Group_Prod1 1-1,false,327,1,1,525,1,1,infpu013335,0
1519326315605,1029,FileUpload F58_PE5415_MultiSheetCorrectRequest,200,Thread Group_Prod1 1-1,true,3494,1,1,1028,1,0,infpu013335,247
1519326316643,517,FileUpload F59_PE5415_Step1SingleSheetBadReq_Ignore,422,Thread Group_Prod1 1-1,false,1282,1,1,517,1,1,infpu013335,0
1519326317171,521,FileUpload F60_PE5415_Step1SingleSheetCorrectReq,200,Thread Group_Prod1 1-1,true,4665,1,1,521,1,0,infpu013335,0
1519326317705,762,FileUpload F61_PE5415_Step3MappingCompanyJson,200,Thread Group_Prod1 1-1,true,1611,1,1,762,1,0,infpu013335,249
1519326318476,523,FileUpload F62_PE5415_Step3MappingCompanyExcel,200,Thread Group_Prod1 1-1,true,1625,1,1,523,1,0,infpu013335,0
1519326319013,522,FileUpload F63_PE5415_Step3MappingColumnExcel,200,Thread Group_Prod1 1-1,true,4466,1,1,521,1,0,infpu013335,0
1519326319545,267,FileUpload F64_PE5415_Step3MappingColumnJson,200,Thread Group_Prod1 1-1,true,4418,1,1,266,1,0,infpu013335,0
1519326319821,1079,FileUpload F65_PE5415_Step3MappingColumnJsonWithoutCountry,200,Thread Group_Prod1 1-1,true,2131,1,1,1078,1,0,infpu013335,262
1519326320910,279,FileUpload F66_PE5415_Step3MappingColumnJsonWithCountry,200,Thread Group_Prod1 1-1,true,1611,1,1,279,1,0,infpu013335,0
1519326321202,4900,FileUpload F67_PE8315_Fix,200,Thread Group_Prod1 1-1,false,34221,1,1,4594,1,1,infpu013335,0
1519326326115,1171,FileUpload F68_PE8037_Fix,200,Thread Group_Prod1 1-1,false,2156,1,1,1171,1,1,infpu013335,317
1519326327294,491,NoFileUpload N72_ PE5668 T1,200,Thread Group_Prod1 1-1,true,702,1,1,491,1,0,infpu013335,0
1519326327793,247,NoFileUpload N80_PE7989_Req_NonNumericData_withAllwrongcolumn_MDA,200,Thread Group_Prod1 1-1,true,678,1,1,246,1,0,infpu013335,0
1519326328052,248,NoFileUpload N81_PE7989_Req_NonNumericData_withAllrightcolumn_MDA,200,Thread Group_Prod1 1-1,true,846,1,1,248,1,0,infpu013335,0
1519326328313,740,NoFileUpload N82_PE7989_Req_NonNumericData_with1wrongcolumn_MDA,200,Thread Group_Prod1 1-1,true,854,1,1,740,1,0,infpu013335,246
1519326329063,253,NoFileUpload N83_PE7989_uploadMultipleFile,200,Thread Group_Prod1 1-1,true,835,1,1,253,1,0,infpu013335,0
1519326329326,252,NoFileUpload N84_400 and 500 Error_crossSectionChecks,200,Thread Group_Prod1 1-1,true,619,1,1,252,1,0,infpu013335,0
1519326329586,251,NoFileUpload N85_400 and 500 Error_crossSectionChecks,200,Thread Group_Prod1 1-1,true,648,1,1,251,1,0,infpu013335,0
1519326329845,250,NoFileUpload N86_400 and 500 Error_crossSectionChecks,200,Thread Group_Prod1 1-1,true,647,1,1,250,1,0,infpu013335,0
1519326330108,251,NoFileUpload N87_400 and 500 Error_crossSectionChecks,200,Thread Group_Prod1 1-1,true,501,1,1,251,1,0,infpu013335,0
1519326330368,751,NoFileUpload N88_400 and 500 Error_crossSectionChecks,200,Thread Group_Prod1 1-1,true,619,1,1,751,1,0,infpu013335,252
1519326331127,500,NoFileUpload N89_PE8186_to Add assertion,200,Thread Group_Prod1 1-1,true,949,1,1,500,1,0,infpu013335,0
1519326331636,253,NoFileUpload N90_PE8032_SyntaxError1_Fix,200,Thread Group_Prod1 1-1,false,674,1,1,253,1,1,infpu013335,0
1519326331912,253,NoFileUpload N91_PE8032_SyntaxError2_Fix,200,Thread Group_Prod1 1-1,false,674,1,1,253,1,1,infpu013335,0
1519326332183,253,NoFileUpload N92_PE8032_InvalidColumn,200,Thread Group_Prod1 1-1,true,758,1,1,253,1,0,infpu013335,0
1519326332452,747,NoFileUpload N93_PE7771_Exp,200,Thread Group_Prod1 1-1,true,674,1,1,747,1,0,infpu013335,248
1519326333215,499,NoFileUpload N94_PE7771_Range,200,Thread Group_Prod1 1-1,true,917,1,1,499,1,0,infpu013335,0
1519326333729,1039,NoFileUpload N94_PE7771_Added Scenario,200,Thread Group_Prod1 1-1,true,6106,1,1,1038,1,0,infpu013335,0
1519326334780,1043,NoFileUpload N95_PE8269 and 8397_CSC_MDA_ClearValue_Fix,200,Thread Group_Prod1 1-1,false,582,1,1,1043,1,1,infpu013335,259
1519326335831,264,NoFileUpload N96_PE8269 and 8397_CSC_OtherThanClearValue,200,Thread Group_Prod1 1-1,true,792,1,1,264,1,0,infpu013335,0
1519326336103,264,NoFileUpload N97_PE8269 and 8397_UMF_NonMDA,200,Thread Group_Prod1 1-1,true,833,1,1,264,1,0,infpu013335,0
1519326336375,264,NoFileUpload N98_PE8269 and 8397_PDA_MDA_ClearValue_Fix,200,Thread Group_Prod1 1-1,false,576,1,1,264,1,1,infpu013335,0
1519326336646,263,NoFileUpload N99_PE8269 and 8397_PDA_OtherThanClearValue,200,Thread Group_Prod1 1-1,true,789,1,1,263,1,0,infpu013335,0
1519326336917,10365,FileUpload F69_PE8584_Null Issue ,200,Thread Group_Prod1 1-1,true,14518,1,1,10363,1,0,infpu013335,244
1519326347294,1485,FileUpload F70_PE8584,200,Thread Group_Prod1 1-1,true,16948,1,1,1233,1,0,infpu013335,252
1519326348792,403,FileUpload F71_PE8584,200,Thread Group_Prod1 1-1,true,2020,1,1,402,1,0,infpu013335,0
1519326349260,456,FileUpload F72_PE8584,200,Thread Group_Prod1 1-1,true,2020,1,1,455,1,0,infpu013335,0
1519326349725,12108,FileUpload F73_PE8584,200,Thread Group_Prod1 1-1,true,14379,1,1,12106,1,0,infpu013335,259
1519326361849,15816,FileUpload F74_PE8584,200,Thread Group_Prod1 1-1,true,14383,1,1,15814,1,0,infpu013335,324
1519326377681,3586,FileUpload F75_PE8584,200,Thread Group_Prod1 1-1,true,18913,1,1,3336,1,0,infpu013335,249
1519326381282,10827,FileUpload F76_PE8584,200,Thread Group_Prod1 1-1,true,174768,1,1,9838,1,0,infpu013335,247
1519326392122,6559,FileUpload F77_PE8584,200,Thread Group_Prod1 1-1,true,56596,1,1,6047,1,0,infpu013335,256
1519326398709,54908,FileUpload F78_PE8584,200,Thread Group_Prod1 1-1,false,175053,1,1,53879,1,1,infpu013335,256
1519326453633,874,NoFileUpload N100_PE8916,200,Thread Group_Prod1 1-1,false,860,1,1,874,1,1,infpu013335,346
1519326454519,3530,FileUpload F79_PE8951_P1,200,Thread Group_Prod1 1-1,true,34677,1,1,3260,1,0,infpu013335,0
1519326458049,3766,FileUpload F80_PE8951_P2,200,Thread Group_Prod1 1-1,true,30937,1,1,3508,1,0,infpu013335,256
1519326461817,3794,FileUpload F81_PE8951_P3,200,Thread Group_Prod1 1-1,true,30936,1,1,3530,1,0,infpu013335,257
1519326465611,4730,FileUpload F82_PE8951_P4,200,Thread Group_Prod1 1-1,true,30844,1,1,4476,1,0,infpu013335,253
1519326470342,3357,FileUpload F83_PE8951_N1,400,Thread Group_Prod1 1-1,true,389,1,1,3357,1,0,infpu013335,257
1519326473699,3300,FileUpload F84_PE8951_N2,400,Thread Group_Prod1 1-1,true,389,1,1,3300,1,0,infpu013335,253
1519326477001,3427,FileUpload F85_PE8951_N3,400,Thread Group_Prod1 1-1,true,388,1,1,3426,1,0,infpu013335,262
1519326480429,3240,FileUpload F86_PE8951_N4,400,Thread Group_Prod1 1-1,true,388,1,1,3240,1,0,infpu013335,247
