{
	"entities": [{
		"contextData": {
			"campaignId": "597b474bfe305700157895c0",
			"companyId": "5a27ca2f7ebf571d70e9b6f6",
			"uniqueIdColumnCode": "YOUR_EEID",
			"grpCode": "",
			"cpyCode": "",
			"ctryCode": "BO",
			"orgSize": "",
			"industry": {
				"superSector": "CG",
				"sector": "101",
				"subSector": "2670"
			}
		},
		"sectionStructure": {
			"columns": [{
					"code": "question1",
					"displayLabel": "Question 1 display label",
					"dataType": "int",
					"questionType": "checkboxes",
					"validations": [{
						"parameter": "",
						"clientInstructions": "Please provide Annual Base Salary",
						"message": "Annual Base Salary is blank",
						"validationType": "email",
						"errorType": "ERROR",
						"_id": "59e91b14a811920015bcd533",
						"category": "input_data",
						"dependentColumns": []
					}]
				},
				{
					"code": "question2",
					"displayLabel": "Question 1 display label",
					"dataType": "string",
					"questionType": "checkboxes",
					"validations": [{
						"parameter": "",
						"clientInstructions": "Please provide Annual Base Salary",
						"errorType": "ERROR",
						"message": "Annual Base Salary is blank",
						"validationType": "phone",
						"_id": "59e91b14a811920015bcd533",
						"category": "input_data",
						"dependentColumns": []
					}]
				},
				{
					"code": "question3",
					"displayLabel": "Question 1 display label",
					"dataType": "string",
					"questionType": "checkboxes",
					"validations": [{
						"parameter": "",
						"clientInstructions": "Please provide Annual Base Salary",
						"errorType": "ALERT",
						"message": "Annual Base Salary is blank",
						"validationType": "required",
						"_id": "59e91b14a811920015bcd533",
						"category": "input_data",
						"dependentColumns": []
					}]
				}
			]
		},
		"data": [{
			"$$id": "58d0360baa2ae02cc4723431",
			"YOUR_EEID": "1",
			"question1": [1, null, "vivek.k@gmail.com"],
			"question2": "1,null,+2345588888",
			"question3": [1, null, 1],
			"EMP006": "EMP_006"
		}]
	}]
}