{
    "entities": [
        {
            "data": [
                {
                    "AutoDataQuestionCode76671": "1$._2abc",
                    "AutoDataQuestionCode76672": "10.-10",
                    "Date123": "111_111_11",
                    "YOUR_CODE": "ADM002",
                    "YOUR_EEID": "1",
                    "YOUR_LEVEL": "T40",
                    "YOUR_TITLE": "Human Resources Service Center Support - Entry Professional  Technical",
                    "percentage": "1$._2",
                    "validationErrors": [
                        {
                            "field": "AutoDataQuestionCode76671",
                            "validationType": "dataTypeCheck",
                            "errorType": "ERROR",
                            "_id": "dataTypeInt",
                            "messageKey": "mosaic-error-message.incorrect_integer_format",
                            "messageParams": {
                                "value": "int"
                            }
                        },
                        {
                            "field": "AutoDataQuestionCode76672",
                            "validationType": "dataTypeCheck",
                            "errorType": "ERROR",
                            "_id": "dataTypeDouble",
                            "messageKey": "mosaic-error-message.incorrect_double_format",
                            "messageParams": {
                                "value": "double"
                            }
                        },
                        {
                            "field": "percentage",
                            "validationType": "dataTypeCheck",
                            "errorType": "ERROR",
                            "_id": "dataTypeDouble",
                            "messageKey": "mosaic-error-message.incorrect_double_format",
                            "messageParams": {
                                "value": "double"
                            }
                        },
                        {
                            "field": "Date123",
                            "validationType": "dataTypeCheck",
                            "errorType": "ERROR",
                            "_id": "dataTypeDate",
                            "messageKey": "mosaic-error-message.incorrect_date_format",
                            "messageParams": {
                                "value": "date"
                            }
                        }
                    ]
                },
                {
                    "AutoDataQuestionCode76671": "1$._2abc",
                    "AutoDataQuestionCode76672": "10.-10",
                    "Date123": "1111_1111",
                    "YOUR_CODE": "ADM001",
                    "YOUR_EEID": "2",
                    "YOUR_LEVEL": "T40",
                    "YOUR_TITLE": "Technical Project Management: Web Development - Entry Professional  (P1)",
                    "percentage": "0.5",
                    "validationErrors": [
                        {
                            "field": "AutoDataQuestionCode76671",
                            "validationType": "dataTypeCheck",
                            "errorType": "ERROR",
                            "_id": "dataTypeInt",
                            "messageKey": "mosaic-error-message.incorrect_integer_format",
                            "messageParams": {
                                "value": "int"
                            }
                        },
                        {
                            "field": "AutoDataQuestionCode76672",
                            "validationType": "dataTypeCheck",
                            "errorType": "ERROR",
                            "_id": "dataTypeDouble",
                            "messageKey": "mosaic-error-message.incorrect_double_format",
                            "messageParams": {
                                "value": "double"
                            }
                        },
                        {
                            "field": "Date123",
                            "validationType": "dataTypeCheck",
                            "errorType": "ERROR",
                            "_id": "dataTypeDate",
                            "messageKey": "mosaic-error-message.incorrect_date_format",
                            "messageParams": {
                                "value": "date"
                            }
                        }
                    ]
                },
                {
                    "AutoDataQuestionCode76671": "1$._2abc",
                    "AutoDataQuestionCode76672": "10.-10",
                    "Date123": "111_111",
                    "YOUR_CODE": "R&D001",
                    "YOUR_EEID": "3",
                    "YOUR_LEVEL": "T40",
                    "YOUR_TITLE": "Human Resources Service Center Support - Entry Professional  Technical",
                    "percentage": "0.60",
                    "validationErrors": [
                        {
                            "field": "AutoDataQuestionCode76671",
                            "validationType": "dataTypeCheck",
                            "errorType": "ERROR",
                            "_id": "dataTypeInt",
                            "messageKey": "mosaic-error-message.incorrect_integer_format",
                            "messageParams": {
                                "value": "int"
                            }
                        },
                        {
                            "field": "AutoDataQuestionCode76672",
                            "validationType": "dataTypeCheck",
                            "errorType": "ERROR",
                            "_id": "dataTypeDouble",
                            "messageKey": "mosaic-error-message.incorrect_double_format",
                            "messageParams": {
                                "value": "double"
                            }
                        },
                        {
                            "field": "Date123",
                            "validationType": "dataTypeCheck",
                            "errorType": "ERROR",
                            "_id": "dataTypeDate",
                            "messageKey": "mosaic-error-message.incorrect_date_format",
                            "messageParams": {
                                "value": "date"
                            }
                        }
                    ]
                }
            ],
            "contextData": {
                "uniqueIdColumnCode": "YOUR_EEID",
                "companyId": "5aa1178d32302500182e66d1",
                "campaignId": "5a97ccf641aefb001842ff4c",
                "grpCode": "",
                "companyName": "KFC-123",
                "cpyCode": "",
                "industry": {
                    "superSector": "CG",
                    "sector": "102"
                },
                "orgSize": null,
                "sectionId": "AutoData_Section_2419",
                "ctryCode": "US"
            }
        }
    ]
}