timeStamp,elapsed,label,responseCode,threadName,success,bytes,grpThreads,allThreads,Latency,SampleCount,ErrorCount,Hostname,Connect
1512560012225,1097,NoFileUpload B17_PE7033_PE7314,200,Thread Group_Prod1 1-1,true,879,1,1,1075,1,0,INFPU07042,326
1512560013324,267,NoFileUpload B18_PE7033_PE7314,200,Thread Group_Prod1 1-1,false,521,1,1,266,1,1,INFPU07042,0
1512560013592,273,NoFileUpload B17_PE7044_expression,200,Thread Group_Prod1 1-1,true,516,1,1,273,1,0,INFPU07042,0
1512560013866,284,NoFileUpload B17_PE7044_range,200,Thread Group_Prod1 1-1,true,934,1,1,284,1,0,INFPU07042,0
1512560014233,1247,NoFileUpload B17_PE7044_rangeValidationRefTable,200,Thread Group_Prod1 1-1,true,928,1,1,1247,1,0,INFPU07042,249
1512560015580,283,NoFileUpload B17_PE7044_rangeValidationRefTable_dimensions,200,Thread Group_Prod1 1-1,true,967,1,1,282,1,0,INFPU07042,0
1512560015941,305,FileUpload D10_PE5216,200,Thread Group_Prod1 1-1,true,1364,1,1,305,1,0,INFPU07042,0
1512560016320,1048,FileUpload D11_PE6030,200,Thread Group_Prod1 1-1,true,3265,1,1,1047,1,0,INFPU07042,259
1512560017432,541,FileUpload D12_PE6027,200,Thread Group_Prod1 1-1,true,2163,1,1,540,1,0,INFPU07042,0
1512560018042,2868,FileUpload D12_PE7611,200,Thread Group_Prod1 1-1,true,2418,1,1,2867,1,0,INFPU07042,0
1512560020958,2097,FileUpload D12_PE7611,200,Thread Group_Prod1 1-1,true,1621,1,1,2097,1,0,INFPU07042,254
1512560023067,1808,FileUpload D12_PE7611,200,Thread Group_Prod1 1-1,true,1518,1,1,1808,1,0,INFPU07042,258
1512560024917,1395,FileUpload D12_PE7611,200,Thread Group_Prod1 1-1,true,1586,1,1,1395,1,0,INFPU07042,0
1512560026333,1878,FileUpload D12_PE7611,200,Thread Group_Prod1 1-1,true,2033,1,1,1876,1,0,INFPU07042,254
1512560028247,1388,FileUpload D12_PE7611,200,Thread Group_Prod1 1-1,true,1624,1,1,1388,1,0,INFPU07042,0
1512560029667,2106,FileUpload D12_PE7611,200,Thread Group_Prod1 1-1,true,1624,1,1,2106,1,0,INFPU07042,250
1512560031819,2182,FileUpload D12_PE7611,200,Thread Group_Prod1 1-1,true,2042,1,1,2181,1,0,INFPU07042,253
1512560034012,1871,FileUpload D12_PE7611,200,Thread Group_Prod1 1-1,true,1799,1,1,1871,1,0,INFPU07042,286
1512560035917,1111,FileUpload D12_PE7611,200,Thread Group_Prod1 1-1,true,1754,1,1,1110,1,0,INFPU07042,0
1512560037066,2115,FileUpload D13_PE5691_1Record,200,Thread Group_Prod1 1-1,true,3264,1,1,2114,1,0,INFPU07042,246
1512560039220,2406,FileUpload D15_PE5691_1Record,200,Thread Group_Prod1 1-1,true,3264,1,1,2404,1,0,INFPU07042,249
1512560041626,2108,FileUpload D16_PE7071_1Record,200,Thread Group_Prod1 1-1,true,6396,1,1,2106,1,0,INFPU07042,280
1512560043770,2145,FileUpload D17_PE7071_1Record,200,Thread Group_Prod1 1-1,true,6394,1,1,2143,1,0,INFPU07042,323
1512560045978,1794,FileUpload D18_PE7071_1Record,200,Thread Group_Prod1 1-1,true,6995,1,1,1791,1,0,INFPU07042,250
1512560047812,1299,FileUpload D20_PE7071_1Record,200,Thread Group_Prod1 1-1,true,5215,1,1,1296,1,0,INFPU07042,0
