timeStamp,elapsed,label,responseCode,threadName,success,bytes,grpThreads,allThreads,Latency,SampleCount,ErrorCount,Hostname,Connect
1511777694908,3874,FileUpload D10_PE5691_1Record,200,Thread Group_Prod1 1-1,true,12550,1,1,3869,1,0,INFPU07042,334
1511777698784,4216,FileUpload D10_PE5691_5Records,200,Thread Group_Prod1 1-1,true,24376,1,1,3856,1,0,INFPU07042,251
