timeStamp,elapsed,label,responseCode,threadName,success,bytes,grpThreads,allThreads,Latency,SampleCount,ErrorCount,Hostname,Connect
1512713371062,1388,NoFileUpload B17_PE7033,404,Thread Group_Prod1 1-1,false,109,1,1,1388,1,1,INFPU07042,431
1512713372459,959,NoFileUpload B18_PE7314,404,Thread Group_Prod1 1-1,false,109,1,1,959,1,1,INFPU07042,0
1512713374304,1222,NoFileUpload B17_PE7044_expression,404,Thread Group_Prod1 1-1,false,109,1,1,1222,1,1,INFPU07042,253
1512713375528,920,NoFileUpload B17_PE7044_range,404,Thread Group_Prod1 1-1,false,109,1,1,920,1,1,INFPU07042,0
1512713376516,1231,NoFileUpload B17_PE7044_rangeValidationRefTable,404,Thread Group_Prod1 1-1,false,109,1,1,1231,1,1,INFPU07042,253
1512713377787,1925,NoFileUpload B17_PE7044_rangeValidationRefTable_dimensions,404,Thread Group_Prod1 1-1,false,109,1,1,1925,1,1,INFPU07042,0
1512713379769,1230,NoFileUpload B17_PE7631,404,Thread Group_Prod1 1-1,false,109,1,1,1230,1,1,INFPU07042,250
1512713381014,952,NoFileUpload B17_PE7631_metaData,404,Thread Group_Prod1 1-1,false,109,1,1,952,1,1,INFPU07042,0
1512713381986,1129,NoFileUpload B17_PE7631_metaData,404,Thread Group_Prod1 1-1,false,109,1,1,1129,1,1,INFPU07042,258
1512713383138,843,NoFileUpload B17_PE7631_Autocorrect,404,Thread Group_Prod1 1-1,false,109,1,1,843,1,1,INFPU07042,0
1512713383999,1107,FileUpload D10_PE5216,404,Thread Group_Prod1 1-1,false,109,1,1,1107,1,1,INFPU07042,260
1512713385186,1624,FileUpload D11_PE6030,404,Thread Group_Prod1 1-1,false,109,1,1,1624,1,1,INFPU07042,0
1512713386853,1683,FileUpload D12_PE6027,404,Thread Group_Prod1 1-1,false,109,1,1,1683,1,1,INFPU07042,251
1512713388586,2923,FileUpload D12_PE7611,404,Thread Group_Prod1 1-1,false,109,1,1,2923,1,1,INFPU07042,0
1512713391527,1875,FileUpload D12_PE7611,404,Thread Group_Prod1 1-1,false,109,1,1,1875,1,1,INFPU07042,249
1512713393419,939,FileUpload D12_PE7611,404,Thread Group_Prod1 1-1,false,109,1,1,939,1,1,INFPU07042,0
1512713394371,1848,FileUpload D12_PE7611,404,Thread Group_Prod1 1-1,false,109,1,1,1848,1,1,INFPU07042,245
1512713396234,908,FileUpload D12_PE7611,404,Thread Group_Prod1 1-1,false,109,1,1,908,1,1,INFPU07042,0
1512713397155,1894,FileUpload D12_PE7611,404,Thread Group_Prod1 1-1,false,109,1,1,1894,1,1,INFPU07042,253
1512713399067,810,FileUpload D12_PE7611,404,Thread Group_Prod1 1-1,false,109,1,1,810,1,1,INFPU07042,0
1512713399890,2104,FileUpload D12_PE7611,404,Thread Group_Prod1 1-1,false,109,1,1,2104,1,1,INFPU07042,259
1512713402007,1976,FileUpload D12_PE7611,404,Thread Group_Prod1 1-1,false,109,1,1,1976,1,1,INFPU07042,337
1512713404000,1321,FileUpload D12_PE7611,404,Thread Group_Prod1 1-1,false,109,1,1,1321,1,1,INFPU07042,0
1512713405338,2358,FileUpload D13_PE5691_1Record,404,Thread Group_Prod1 1-1,false,109,1,1,2358,1,1,INFPU07042,252
1512713407710,2784,FileUpload D15_PE5691_1Record,404,Thread Group_Prod1 1-1,false,109,1,1,2784,1,1,INFPU07042,248
1512713410497,2338,FileUpload D16_PE7071_1Record,404,Thread Group_Prod1 1-1,false,109,1,1,2338,1,1,INFPU07042,251
1512713412851,2114,FileUpload D17_PE7071_1Record,404,Thread Group_Prod1 1-1,false,109,1,1,2114,1,1,INFPU07042,248
1512713414992,2333,FileUpload D18_PE7071_1Record,404,Thread Group_Prod1 1-1,false,109,1,1,2333,1,1,INFPU07042,251
1512713417339,2234,FileUpload D20_PE7071_1Record,404,Thread Group_Prod1 1-1,false,109,1,1,2234,1,1,INFPU07042,249
1512713419592,586,NoFileUpload B24_PE7474_Testcase1,404,Thread Group_Prod1 1-1,false,109,1,1,586,1,1,INFPU07042,253
1512713420198,446,NoFileUpload B24_PE7474_Testcase2,404,Thread Group_Prod1 1-1,false,109,1,1,446,1,1,INFPU07042,0
1512713420660,342,NoFileUpload B24_PE7474_Testcase3,404,Thread Group_Prod1 1-1,false,109,1,1,342,1,1,INFPU07042,0
1512713421021,253,NoFileUpload B24_PE7474_Testcase4,404,Thread Group_Prod1 1-1,false,109,1,1,253,1,1,INFPU07042,0
1512713421288,253,NoFileUpload B24_PE7474_Testcase5,404,Thread Group_Prod1 1-1,false,109,1,1,253,1,1,INFPU07042,0
1512713421557,312,NoFileUpload B24_PE7474_Testcase6,404,Thread Group_Prod1 1-1,false,109,1,1,312,1,1,INFPU07042,0
1512713421884,6539,FileUpload D12_PE7474,404,Thread Group_Prod1 1-1,false,109,1,1,6539,1,1,INFPU07042,253
1512713428438,490,NoFileUpload B21_7045RawJson_NonNumerciData,404,Thread Group_Prod1 1-1,false,109,1,1,490,1,1,INFPU07042,246
1512713428961,248,NoFileUpload B21_7045RawJson_SkipBlankCols,404,Thread Group_Prod1 1-1,false,109,1,1,248,1,1,INFPU07042,0
1512713429224,246,NoFileUpload B21_7045RawJson_SkipNonNumericCols,404,Thread Group_Prod1 1-1,false,109,1,1,246,1,1,INFPU07042,0
1512713429494,515,NoFileUpload B21_7045RawJson_WithDimesion,404,Thread Group_Prod1 1-1,false,109,1,1,515,1,1,INFPU07042,0
1512713430037,470,NoFileUpload B21_7045RawJson_SingleNonBlankValue,404,Thread Group_Prod1 1-1,false,109,1,1,470,1,1,INFPU07042,0
1512713430520,500,NoFileUpload B21_7045RawJson_WithOtherValidation,404,Thread Group_Prod1 1-1,false,109,1,1,500,1,1,INFPU07042,250
1512713431034,486,FileUpload D20_PE7045_7045CSV_SimpleSequentialCheck,404,Thread Group_Prod1 1-1,false,109,1,1,486,1,1,INFPU07042,0
1512713431540,286,FileUpload D20_PE7045_7045Excel_SimpleSequentialCheck,404,Thread Group_Prod1 1-1,false,109,1,1,286,1,1,INFPU07042,0
1512713431851,295,FileUpload D20_PE7045_7045CSV_SkipBlankColumn,404,Thread Group_Prod1 1-1,false,109,1,1,295,1,1,INFPU07042,0
1512713432162,251,FileUpload D20_PE7045_7045EXCEL_SkipBlankColumn,404,Thread Group_Prod1 1-1,false,109,1,1,251,1,1,INFPU07042,0
1512713432427,250,FileUpload D20_PE7045_7045CSV_SkipNonNumericData,404,Thread Group_Prod1 1-1,false,109,1,1,250,1,1,INFPU07042,0
1512713432698,757,FileUpload D20_PE7045_7045EXCEL_SkipNonNumericData,404,Thread Group_Prod1 1-1,false,109,1,1,757,1,1,INFPU07042,246
1512713433485,260,FileUpload D20_PE7440,Non HTTP response code: java.net.SocketException,Thread Group_Prod1 1-1,false,2560,1,1,0,1,1,INFPU07042,0
1512713555024,330,FileUpload D20_PE7440,Non HTTP response code: java.net.SocketException,Thread Group_Prod1 1-1,false,2560,1,1,0,1,1,INFPU07042,327
1512713586334,576,FileUpload D20_PE7440,Non HTTP response code: java.net.SocketException,Thread Group_Prod1 1-1,false,2560,1,1,0,1,1,INFPU07042,573
